<?xml version="1.0" encoding="UTF-8" standalone="no"?>
<!-- Created with Inkscape (http://www.inkscape.org/) -->

<svg
   xmlns:dc="http://purl.org/dc/elements/1.1/"
   xmlns:cc="http://creativecommons.org/ns#"
   xmlns:rdf="http://www.w3.org/1999/02/22-rdf-syntax-ns#"
   xmlns:svg="http://www.w3.org/2000/svg"
   xmlns="http://www.w3.org/2000/svg"
   version="1.1"
   width="1052.3622"
   height="744.09448"
   id="svg3495">
  <defs
     id="defs3497" />
  <metadata
     id="metadata3500">
    <rdf:RDF>
      <cc:Work
         rdf:about="">
        <dc:format>image/svg+xml</dc:format>
        <dc:type
           rdf:resource="http://purl.org/dc/dcmitype/StillImage" />
        <dc:title></dc:title>
      </cc:Work>
    </rdf:RDF>
  </metadata>
  <path
     d="m 1052.3622,186.02359 0,372.0473 -1052.362258691406,0 0,-372.0473 1052.362258691406,0 z"
     id="path19722"
     style="fill:none;stroke:none" />
  <g
     id="text5890-0-5"
     style="font-size:80px;font-style:normal;font-variant:normal;font-weight:bold;font-stretch:normal;text-align:start;line-height:125%;writing-mode:lr-tb;text-anchor:start;fill:#ffffff;fill-opacity:1;stroke:none;font-family:Free Paladin;-inkscape-font-specification:Free Paladin Medium">
    <path
       d="m 167.42597,362.42651 -12.75,0 0,61.965 12.75,0 0,-61.965"
       id="path3401"
       style="font-size:85px;fill:#ffffff;font-family:Nimbus Sans L;-inkscape-font-specification:Nimbus Sans L Bold" />
    <path
       d="m 356.95472,397.70151 27.115,0 0,-10.625 -27.115,0 0,-14.025 30.77,0 0,-10.625 -43.52,0 0,61.965 12.75,0 0,-26.69"
       id="path3403"
       style="letter-spacing:0px" />
    <path
       d="m 395.23261,378.49151 0,45.9 11.9,0 0,-24.395 c 0,-6.96999 3.48501,-10.455 10.455,-10.455 1.275,0 2.125,0.085 3.74,0.34 l 0,-12.07 c -0.68,-0.085 -1.105,-0.085 -1.445,-0.085 -5.44,0 -10.2,3.57001 -12.75,9.775 l 0,-9.01 -11.9,0"
       id="path3405"
       style="letter-spacing:0px" />
    <path
       d="m 467.45472,405.18151 c 0.085,-1.02 0.085,-1.445 0.085,-2.04 0,-4.59 -0.68,-8.84 -1.785,-12.07 -3.06,-8.32999 -10.45501,-13.345 -19.72,-13.345 -13.17499,0 -21.25,9.52002 -21.25,24.905 0,14.70499 7.99001,23.715 20.995,23.715 10.28499,0 18.615,-5.86501 21.25,-14.875 l -11.73,0 c -1.445,3.655 -4.76001,5.78 -9.095,5.78 -3.4,0 -6.12,-1.445 -7.82,-3.995 -1.105,-1.7 -1.53,-3.74 -1.7,-8.075 l 30.77,0 m -30.6,-7.905 c 0.765,-6.96999 3.74,-10.455 9.01,-10.455 2.975,0 5.695,1.445 7.395,3.825 1.105,1.7 1.615,3.485 1.87,6.63 l -18.275,0"
       id="path3407"
       style="letter-spacing:0px" />
    <path
       d="m 514.76917,405.18151 c 0.085,-1.02 0.085,-1.445 0.085,-2.04 0,-4.59 -0.68,-8.84 -1.785,-12.07 -3.06,-8.32999 -10.45501,-13.345 -19.72,-13.345 -13.17499,0 -21.25,9.52002 -21.25,24.905 0,14.70499 7.99001,23.715 20.995,23.715 10.28499,0 18.615,-5.86501 21.25,-14.875 l -11.73,0 c -1.445,3.655 -4.76,5.78 -9.095,5.78 -3.39999,0 -6.12,-1.445 -7.82,-3.995 -1.105,-1.7 -1.53,-3.74 -1.7,-8.075 l 30.77,0 m -30.6,-7.905 c 0.765,-6.96999 3.74001,-10.455 9.01,-10.455 2.975,0 5.695,1.445 7.395,3.825 1.105,1.7 1.615,3.485 1.87,6.63 l -18.275,0"
       id="path3409"
       style="letter-spacing:0px" />
    <path
       d="m 592.71284,381.29651 c 0,-5.69499 -1.275,-9.435 -4.335,-12.835 -4.16499,-4.59 -11.05001,-7.055 -19.975,-7.055 -14.87498,0 -23.46,6.97001 -23.46,19.04 0,9.60499 4.84502,14.28 17.425,16.66 l 8.67,1.7 c 8.5,1.615 11.645,3.99501 11.645,9.01 0,5.18499 -4.76,8.33 -12.495,8.33 -8.66999,0 -13.515,-3.65501 -13.94,-10.285 l -12.41,0 c 0.765,13.25999 9.86002,20.485 25.67,20.485 15.97999,0 25.415,-7.48001 25.415,-20.06 0,-9.77499 -4.93001,-14.875 -16.405,-17.085 l -9.69,-1.87 c -9.09499,-1.785 -11.73,-3.57 -11.73,-8.075 0,-4.675 4.16501,-7.65 10.71,-7.65 8.075,0 12.58,3.40001 13.005,9.69 l 11.9,0"
       id="path3411"
       style="letter-spacing:0px" />
    <path
       d="m 623.48019,377.72651 c -14.02499,0 -22.61,9.26502 -22.61,24.31 0,15.12998 8.58501,24.31 22.695,24.31 13.93998,0 22.695,-9.26501 22.695,-23.97 0,-15.55498 -8.41502,-24.65 -22.78,-24.65 m 0.085,9.605 c 6.54499,0 10.795,5.86501 10.795,14.875 0,8.58499 -4.42001,14.535 -10.795,14.535 -6.46,0 -10.795,-5.95001 -10.795,-14.705 0,-8.75499 4.335,-14.705 10.795,-14.705"
       id="path3413"
       style="letter-spacing:0px" />
    <path
       d="m 676.46308,379.42651 -7.055,0 0,-4.505 c 0,-2.38 1.02,-3.57 3.23,-3.57 1.02,0 2.38,0.085 3.4,0.255 l 0,-8.925 c -2.21,-0.17 -5.185,-0.255 -6.8,-0.255 -7.90499,0 -11.73,3.74001 -11.73,11.475 l 0,5.525 -6.46,0 0,7.905 6.46,0 0,37.06 11.9,0 0,-37.06 7.055,0 0,-7.905"
       id="path3415"
       style="letter-spacing:0px" />
    <path
       d="m 703.83175,379.42651 -6.63,0 0,-12.325 -11.9,0 0,12.325 -5.865,0 0,7.905 5.865,0 0,28.22 c 0,7.22499 3.82501,10.795 11.645,10.795 2.635,0 4.76,-0.255 6.885,-0.935 l 0,-8.33 c -1.19,0.17 -1.87,0.255 -2.72,0.255 -3.145,0 -3.91,-0.935 -3.91,-5.015 l 0,-24.99 6.63,0 0,-7.905"
       id="path3417"
       style="letter-spacing:0px" />
    <path
       d="m 758.74042,424.39151 13.005,-45.9 -12.325,0 -6.97,32.13 -6.885,-32.13 -11.9,0 -6.97,32.13 -7.31,-32.13 -12.325,0 12.92,45.9 12.24,0 7.31,-32.385 6.885,32.385 12.325,0"
       id="path3419"
       style="letter-spacing:0px" />
    <path
       d="m 817.24964,422.94651 c -2.125,-1.955 -2.72,-3.23 -2.72,-5.61 l 0,-25.5 c 0,-9.34999 -6.37501,-14.11 -18.785,-14.11 -12.40999,0 -18.87,5.27001 -19.635,15.895 l 11.475,0 c 0.595,-4.76 2.55001,-6.29 8.415,-6.29 4.59,0 6.885,1.53 6.885,4.59 0,1.53 -0.765,2.89 -2.04,3.57 -1.615,0.85 -1.61501,0.85 -7.48,1.785 l -4.76,0.85 c -9.09499,1.53 -13.515,6.20501 -13.515,14.45 0,3.91 1.105,7.14 3.23,9.435 2.635,2.72 6.63,4.335 10.71,4.335 5.1,0 9.775,-2.21 13.94,-6.545 0,2.38 0.255,3.23 1.36,4.59 l 12.92,0 0,-1.445 m -14.365,-17 c 0,6.88499 -3.40001,10.795 -9.435,10.795 -3.995,0 -6.46,-2.125 -6.46,-5.525 0,-3.57 1.87001,-5.27 6.8,-6.29 l 4.08,-0.765 c 3.145,-0.595 3.655,-0.765 5.015,-1.445 l 0,3.23"
       id="path3421"
       style="letter-spacing:0px" />
    <path
       d="m 825.37909,378.49151 0,45.9 11.9,0 0,-24.395 c 0,-6.96999 3.48501,-10.455 10.455,-10.455 1.275,0 2.12501,0.085 3.74,0.34 l 0,-12.07 c -0.68,-0.085 -1.105,-0.085 -1.445,-0.085 -5.43999,0 -10.2,3.57001 -12.75,9.775 l 0,-9.01 -11.9,0"
       id="path3423"
       style="letter-spacing:0px" />
    <path
       d="m 897.6012,405.18151 c 0.085,-1.02 0.085,-1.445 0.085,-2.04 0,-4.59 -0.68,-8.84 -1.785,-12.07 -3.05999,-8.32999 -10.45501,-13.345 -19.72,-13.345 -13.17498,0 -21.25,9.52002 -21.25,24.905 0,14.70499 7.99002,23.715 20.995,23.715 10.28499,0 18.61501,-5.86501 21.25,-14.875 l -11.73,0 c -1.445,3.655 -4.76,5.78 -9.095,5.78 -3.39999,0 -6.12,-1.445 -7.82,-3.995 -1.105,-1.7 -1.53,-3.74 -1.7,-8.075 l 30.77,0 m -30.6,-7.905 c 0.765,-6.96999 3.74001,-10.455 9.01,-10.455 2.975,0 5.695,1.445 7.395,3.825 1.105,1.7 1.615,3.485 1.87,6.63 l -18.275,0"
       id="path3425"
       style="letter-spacing:0px" />
  </g>
  <path
     d="m 277.7366,457.9699 c 5.0554,-1.4022 9.1602,-2.44 14.4428,-2.62 0.7308,-5.235 2.2086,-9.2236 4.1308,-14.104 1.9434,-4.9308 3.3718,-10.7136 -0.6806,-15.3756 -5.8172,-6.6912 -12.6436,-5.9806 -18.3226,-1.044 -3.4238,2.977 -4.1702,6.3842 -3.1572,10.4682 -3.9562,-1.4342 -7.4382,-1.0346 -10.7562,2.0598 -5.503,5.1312 -6.924,11.8458 -0.877,18.3308 4.2126,4.5178 10.1132,3.702 15.22,2.2848 z"
     id="path2976-2-2-5-0-7-6-1"
     style="fill:#ffffff;stroke:none" />
  <path
     d="m 315.4996,285.0076 c -4.7252,0.046 -9.6996,1.0925 -14.75,3.0313 -10.8288,4.157 -15.5826,11.7106 -16.7187,22.4062 -8.2507,-6.9034 -16.9791,-9.0006 -27.6563,-4.4688 -17.705,7.5147 -26.9816,22.4161 -18.125,43.2813 1.0226,2.4101 2.3244,4.4837 3.7813,6.3125 0.8407,-0.6321 1.7553,-1.2064 2.75,-1.7812 13.4924,-7.7897 27.6633,-6.5561 36.8437,9.3437 1.1362,1.9696 1.9086,3.94 2.375,5.9063 8.6618,0.9467 16.6948,2.3819 25.7813,5.3437 6.3319,-11.9384 13.3948,-20.2401 22.2812,-30.2813 8.978,-10.1466 17.4401,-22.7874 11.7812,-37.5312 -5.8388,-15.209 -16.2683,-21.6805 -28.3437,-21.5625 z"
     id="path2978-4-1-8-0-8-1-6"
     style="fill:#ffffff;stroke:none" />
  <path
     d="m 241.9996,355.6013 c -6.01,4.5376 -8.1404,10.5964 -7.75,18.2188 -7.4752,-4.4768 -14.7199,-5.0405 -22.6875,-0.062 -13.2126,8.2556 -18.7598,21.336 -9.0312,36.9063 6.7777,10.8485 19.0916,11.5184 30.0312,10.6562 10.8284,-0.8532 19.5968,-1.3478 30.4062,0.375 3.5536,-10.3536 8.1324,-17.8716 13.9688,-27.0312 4.8482,-7.6083 9.2782,-16.5381 7.125,-25.625 l -0.062,0 c -3.5866,-0.392 -7.2717,-0.692 -11.1875,-1 -11.2534,-0.8841 -23.4827,-3.2652 -30.8125,-12.4376 z"
     id="path2980-0-3-5-0-2-3-0"
     style="fill:#ffffff;stroke:none" />
</svg>
