<?xml version="1.0" encoding="UTF-8" standalone="no"?>
<!-- Created with Inkscape (http://www.inkscape.org/) -->

<svg
   xmlns:dc="http://purl.org/dc/elements/1.1/"
   xmlns:cc="http://creativecommons.org/ns#"
   xmlns:rdf="http://www.w3.org/1999/02/22-rdf-syntax-ns#"
   xmlns:svg="http://www.w3.org/2000/svg"
   xmlns="http://www.w3.org/2000/svg"
   version="1.1"
   width="1052.3622"
   height="744.09448"
   id="svg3495">
  <defs
     id="defs3497" />
  <metadata
     id="metadata3500">
    <rdf:RDF>
      <cc:Work
         rdf:about="">
        <dc:format>image/svg+xml</dc:format>
        <dc:type
           rdf:resource="http://purl.org/dc/dcmitype/StillImage" />
        <dc:title></dc:title>
      </cc:Work>
    </rdf:RDF>
  </metadata>
  <path
     d="m 154.1338,240.50201 744.0946,0 0,263.0905 -744.0946,0 0,-263.0905 z"
     id="path20445"
     style="fill:none;stroke:none" />
  <g
     id="text5150-4-9-3-6"
     style="font-size:72px;font-style:normal;font-variant:normal;font-weight:bold;font-stretch:normal;text-align:start;line-height:125%;writing-mode:lr-tb;text-anchor:start;color:#000000;fill:#8a0014;fill-opacity:1;fill-rule:nonzero;stroke:none;marker:none;visibility:visible;display:inline;overflow:visible;enable-background:accumulate;font-family:OCRABold;-inkscape-font-specification:OCRABold Bold">
    <path
       d="m 316.48441,351.01697 0,-9.26758 31.68798,0 0,9.26758 -10.58642,0 0,34.68213 10.58642,0 0,9.26757 -31.68798,0 0,-9.26757 10.58642,0 0,-34.68213 -10.58642,0"
       id="path3276"
       style="font-size:73px;line-height:125%;color:#000000;fill:#8a0014;fill-opacity:1;fill-rule:nonzero;stroke:none;marker:none;visibility:visible;display:inline;overflow:visible;enable-background:accumulate;font-family:DejaVu Sans Mono;-inkscape-font-specification:DejaVu Sans Mono Bold" />
    <path
       d="m 370.272,381.88513 11.86963,0 0,13.08154 -11.86963,0 0,-13.08154"
       id="path3278"
       style="font-size:73px;line-height:125%;color:#000000;fill:#8a0014;fill-opacity:1;fill-rule:nonzero;stroke:none;marker:none;visibility:visible;display:inline;overflow:visible;enable-background:accumulate;font-family:DejaVu Sans Mono;-inkscape-font-specification:DejaVu Sans Mono Bold" />
    <path
       d="m 411.9761,378.32068 0,-30.79688 -10.58642,0 0,-8.02002 21.03027,0 0,38.8169 c -2e-5,3.13673 0.48712,5.35857 1.46143,6.66553 0.97426,1.30697 2.62578,1.96045 4.95459,1.96045 l 8.34082,0 0,8.02001 -11.26367,0 c -4.9665,0 -8.53095,-1.2832 -10.69336,-3.8496 -2.16245,-2.5664 -3.24367,-6.83186 -3.24366,-12.79639"
       id="path3280"
       style="font-size:73px;line-height:125%;color:#000000;fill:#8a0014;fill-opacity:1;fill-rule:nonzero;stroke:none;marker:none;visibility:visible;display:inline;overflow:visible;enable-background:accumulate;font-family:DejaVu Sans Mono;-inkscape-font-specification:DejaVu Sans Mono Bold" />
    <path
       d="m 464.05276,362.5658 c -2.49513,3e-5 -4.45558,1.10501 -5.88134,3.31494 -1.4258,2.18622 -2.13869,5.23977 -2.13867,9.16064 -2e-5,3.92092 0.71287,6.98634 2.13867,9.19629 1.42576,2.18621 3.38621,3.27931 5.88134,3.2793 2.51886,10e-6 4.49119,-1.09309 5.917,-3.2793 1.42575,-2.20995 2.13864,-5.27537 2.13867,-9.19629 -3e-5,-3.92087 -0.71292,-6.97442 -2.13867,-9.16064 -1.42581,-2.20993 -3.39814,-3.31491 -5.917,-3.31494 m -18.46386,12.47558 c -1e-5,-6.43975 1.6634,-11.53691 4.99023,-15.2915 3.35058,-3.77828 7.84178,-5.66744 13.47363,-5.66748 5.65558,4e-5 10.14678,1.8892 13.47364,5.66748 3.35054,3.75459 5.02584,8.85175 5.02588,15.2915 -4e-5,6.43979 -1.67534,11.54884 -5.02588,15.32715 -3.32686,3.75456 -7.81806,5.63184 -13.47364,5.63184 -5.63185,0 -10.12305,-1.87728 -13.47363,-5.63184 -3.32683,-3.77831 -4.99024,-8.88736 -4.99023,-15.32715"
       id="path3282"
       style="font-size:73px;line-height:125%;color:#000000;fill:#8a0014;fill-opacity:1;fill-rule:nonzero;stroke:none;marker:none;visibility:visible;display:inline;overflow:visible;enable-background:accumulate;font-family:DejaVu Sans Mono;-inkscape-font-specification:DejaVu Sans Mono Bold" />
    <path
       d="m 527.10794,355.0448 -12.68945,39.92187 -12.86768,0 -12.68945,-39.92187 10.58642,0 8.51905,31.15332 8.55468,-31.15332 10.58643,0"
       id="path3284"
       style="font-size:73px;line-height:125%;color:#000000;fill:#8a0014;fill-opacity:1;fill-rule:nonzero;stroke:none;marker:none;visibility:visible;display:inline;overflow:visible;enable-background:accumulate;font-family:DejaVu Sans Mono;-inkscape-font-specification:DejaVu Sans Mono Bold" />
    <path
       d="m 569.20413,393.00623 c -2.42386,0.99804 -4.89521,1.74658 -7.41406,2.2456 -2.51891,0.49902 -5.18037,0.74854 -7.98438,0.74854 -6.67742,0 -11.78647,-1.78223 -15.32714,-5.34668 -3.51694,-3.58821 -5.2754,-8.74478 -5.27539,-15.46973 -10e-6,-6.51104 1.69905,-11.65573 5.09716,-15.43408 3.3981,-3.77828 8.03189,-5.66744 13.90137,-5.66748 5.91696,4e-5 10.50322,1.7585 13.75879,5.27539 3.27926,3.49319 4.9189,8.42402 4.91895,14.79248 l 0,4.2417 -27.0542,0 c 0.0237,3.13673 0.9505,5.47739 2.78027,7.02197 1.82973,1.5446 4.56248,2.3169 8.19824,2.31689 2.40004,10e-6 4.76446,-0.34455 7.09326,-1.03369 2.32874,-0.68912 4.76445,-1.78221 7.30713,-3.27929 l 0,9.58838 m -8.83984,-22.45606 c -0.0476,-2.75648 -0.76045,-4.83574 -2.13867,-6.23779 -1.35452,-1.42575 -3.3625,-2.13864 -6.02393,-2.13867 -2.40008,3e-5 -4.31301,0.73668 -5.73877,2.20996 -1.4258,1.44957 -2.26938,3.51695 -2.53076,6.20215 l 16.43213,-0.0357"
       id="path3286"
       style="font-size:73px;line-height:125%;color:#000000;fill:#8a0014;fill-opacity:1;fill-rule:nonzero;stroke:none;marker:none;visibility:visible;display:inline;overflow:visible;enable-background:accumulate;font-family:DejaVu Sans Mono;-inkscape-font-specification:DejaVu Sans Mono Bold" />
    <path
       d="m 606.77347,339.57507 c -3.13675,5.67941 -5.46552,11.18055 -6.98633,16.50342 -1.52086,5.32295 -2.28127,10.64586 -2.28125,15.96875 -2e-5,5.27541 0.76039,10.59832 2.28125,15.96875 1.52081,5.34668 3.84958,10.87158 6.98633,16.57471 l -8.12696,0 c -3.77834,-5.48926 -6.58237,-10.89535 -8.4121,-16.21826 -1.82977,-5.34667 -2.74465,-10.7884 -2.74463,-16.3252 -2e-5,-5.51299 0.91486,-10.94284 2.74463,-16.28955 1.85349,-5.3704 4.65753,-10.7646 8.4121,-16.18262 l 8.12696,0"
       id="path3288"
       style="font-size:73px;line-height:125%;color:#000000;fill:#8a0014;fill-opacity:1;fill-rule:nonzero;stroke:none;marker:none;visibility:visible;display:inline;overflow:visible;enable-background:accumulate;font-family:DejaVu Sans Mono;-inkscape-font-specification:DejaVu Sans Mono Bold" />
    <path
       d="m 657.3887,351.01697 -22.63427,0 0,11.47754 20.60253,0 0,9.26757 -20.60253,0 0,23.20459 -10.51514,0 0,-53.21728 33.14941,0 0,9.26758"
       id="path3290"
       style="font-size:73px;line-height:125%;color:#000000;fill:#8a0014;fill-opacity:1;fill-rule:nonzero;stroke:none;marker:none;visibility:visible;display:inline;overflow:visible;enable-background:accumulate;font-family:DejaVu Sans Mono;-inkscape-font-specification:DejaVu Sans Mono Bold" />
    <path
       d="m 679.84476,371.61951 c -5.29917,-2.01983 -8.88738,-4.13474 -10.76465,-6.34473 -1.87729,-2.23369 -2.81592,-5.22783 -2.81592,-8.98242 0,-4.82385 1.54459,-8.61405 4.63379,-11.37061 3.08918,-2.75645 7.33088,-4.13471 12.7251,-4.13476 2.44756,5e-5 4.89515,0.28521 7.34277,0.85547 2.44756,0.5466 4.87139,1.36642 7.27149,2.45947 l 0,10.26562 c -2.25753,-1.59208 -4.55066,-2.80399 -6.8794,-3.63574 -2.3288,-0.83166 -4.63381,-1.24751 -6.91504,-1.24756 -2.54266,5e-5 -4.49123,0.51095 -5.8457,1.53272 -1.35451,1.02185 -2.03175,2.48327 -2.03174,4.38428 -10e-6,1.47334 0.48713,2.69713 1.46143,3.67138 0.99803,0.95056 3.06541,2.00801 6.20214,3.17237 l 4.52686,1.71093 c 4.27731,1.56839 7.42591,3.64765 9.4458,6.2378 2.01982,2.59019 3.02975,5.8576 3.02979,9.80224 -4e-5,5.37045 -1.59216,9.3864 -4.77637,12.04785 -3.16051,2.6377 -7.94876,3.95655 -14.36475,3.95655 -2.63771,0 -5.28728,-0.32081 -7.94873,-0.96241 -2.6377,-0.61783 -5.19223,-1.54459 -7.66357,-2.78027 l 0,-10.87158 c 2.80403,1.9961 5.51301,3.48129 8.12695,4.45556 2.63768,0.9743 5.23973,1.46144 7.80615,1.46143 2.59015,1e-5 4.59812,-0.58219 6.02393,-1.74658 1.42575,-1.18814 2.13864,-2.83967 2.13867,-4.95459 -3e-5,-1.59211 -0.47529,-2.98224 -1.42578,-4.17041 -0.95055,-1.2119 -2.3288,-2.16242 -4.13477,-2.85156 l -5.16845,-1.96045"
       id="path3292"
       style="font-size:73px;line-height:125%;color:#000000;fill:#8a0014;fill-opacity:1;fill-rule:nonzero;stroke:none;marker:none;visibility:visible;display:inline;overflow:visible;enable-background:accumulate;font-family:DejaVu Sans Mono;-inkscape-font-specification:DejaVu Sans Mono Bold" />
    <path
       d="m 716.59427,339.57507 8.12695,0 c 3.75454,5.41802 6.54669,10.81222 8.37647,16.18262 1.85348,5.34671 2.78024,10.77656 2.78027,16.28955 -3e-5,5.5368 -0.91491,10.97853 -2.74463,16.3252 -1.82978,5.32291 -4.63381,10.729 -8.41211,16.21826 l -8.12695,0 c 3.1367,-5.70313 5.46548,-11.22803 6.98633,-16.57471 1.52081,-5.37043 2.28123,-10.69334 2.28125,-15.96875 -2e-5,-5.32289 -0.76044,-10.6458 -2.28125,-15.96875 -1.52085,-5.32287 -3.84963,-10.82401 -6.98633,-16.50342"
       id="path3294"
       style="font-size:73px;line-height:125%;color:#000000;fill:#8a0014;fill-opacity:1;fill-rule:nonzero;stroke:none;marker:none;visibility:visible;display:inline;overflow:visible;enable-background:accumulate;font-family:DejaVu Sans Mono;-inkscape-font-specification:DejaVu Sans Mono Bold" />
  </g>
</svg>
